{
    "fluentMethods": true,
    "relationships": [
        {
            "relationshipType": "many-to-one",
            "relationshipName": "user",
            "otherEntityName": "user",
            "otherEntityField": "login"
        }
    ],
    "fields": [
        {
            "fieldName": "accountNo",
            "fieldType": "String",
            "fieldValidateRules": [
                "maxlength",
                "minlength"
            ],
            "fieldValidateRulesMaxlength": 10,
            "fieldValidateRulesMinlength": 10
        },
        {
            "fieldName": "funds",
            "fieldType": "Double"
        }
    ],
    "changelogDate": "20180521214130",
    "entityTableName": "bank_account",
    "dto": "mapstruct",
    "pagination": "pagination",
    "service": "serviceImpl",
    "jpaMetamodelFiltering": true,
    "angularJSSuffix": "ng"
}